<svg xmlns="http://www.w3.org/2000/svg" xmlns:xlink="http://www.w3.org/1999/xlink" xml:space="preserve" style="shape-rendering:geometricPrecision;text-rendering:geometricPrecision;image-rendering:optimizeQuality;" viewBox="0 0 173.397 216.74624999999997" x="0px" y="0px" fill-rule="evenodd" clip-rule="evenodd"><defs><style type="text/css">
   
    .fil0 {fill:black}
   
  </style></defs><g><g>
  <path class="fil0" d="M20.0895 13.5022c-3.6316,0 -6.5874,2.9558 -6.5874,6.5904l0.0012 133.216c0,3.6312 2.9546,6.5869 6.5856,6.5869l133.216 -0.0001c3.6344,0 6.5902,-2.9556 6.5902,-6.5867l0.0004 -133.216c0,-3.6346 -2.9562,-6.5903 -6.5906,-6.5903l-133.215 -0.0001zm133.215 149.735l-133.215 0c-5.4754,0 -9.9295,-4.4526 -9.9295,-9.9288l0.0002 -133.216c0,-5.4764 4.4527,-9.9325 9.9287,-9.9325l133.216 -0.0001c5.4769,0 9.9323,4.4563 9.9323,9.9326l0 133.216c0,5.4763 -4.4562,9.929 -9.9323,9.9289z"/><path class="fil0" d="M65.5641 24.3642c-2.5944,0 -4.7045,1.9879 -4.7045,4.4318l0.0016 75.4245c0,2.4439 2.1081,4.4319 4.7018,4.4319l78.7683 0c2.5926,0 4.7017,-1.9879 4.7017,-4.4318l0.0012 -75.4246c0,-2.4439 -2.1107,-4.4317 -4.7045,-4.4317l-78.7656 -0.0001zm78.7672 87.6302l-78.7672 0c-4.4353,0 -8.0464,-3.4882 -8.0464,-7.7738l0 -75.4246c0,-4.2855 3.6099,-7.7739 8.0453,-7.7739l78.7683 -0.0001c4.4349,0 8.044,3.4885 8.044,7.774l0.0004 75.4245c0,4.2857 -3.6107,7.7741 -8.0444,7.7739z"/><path class="fil0" d="M84.8257 67.638l-14.6103 0c-0.9259,0 -1.6721,-0.7484 -1.6721,-1.671l-0.0026 -13.9953c0,-0.4421 0.1766,-0.8667 0.4901,-1.1801 0.3136,-0.3134 0.7379,-0.4909 1.18,-0.4909l12.945 -0.0001 0 -10.6496 -12.9436 0c-0.9227,0 -1.6725,-0.7484 -1.6725,-1.671 0.001,-0.9226 0.7486,-1.671 1.6711,-1.671l14.6149 0c0.9228,0 1.6712,0.7484 1.6712,1.671l0.0004 13.9917c0,0.9226 -0.7488,1.6711 -1.6716,1.6711l-12.9433 -0.0001 0 10.6531 12.9433 0c0.9228,0 1.6712,0.7451 1.6712,1.6712 0.0004,0.9224 -0.7484,1.6711 -1.6712,1.671z"/><path class="fil0" d="M109.69 67.638l-14.6137 0c-0.9227,0 -1.6688,-0.7484 -1.6688,-1.671 0.0004,-0.9262 0.7449,-1.6711 1.6676,-1.6711l12.9448 -0.0001 0 -10.6531 -12.9436 0c-0.9227,0 -1.6688,-0.7484 -1.6688,-1.6709l0.0004 -13.9918c0,-0.9226 0.7445,-1.671 1.6672,-1.671l14.6149 0c0.9225,0 1.671,0.7484 1.671,1.671 0.0004,0.9225 -0.7485,1.6711 -1.671,1.6711l-12.9436 -0.0001 0 10.6496 12.9436 0c0.9225,0 1.671,0.7486 1.671,1.6712l0.0004 13.9951c0,0.9225 -0.7489,1.6712 -1.6714,1.6711z"/><path class="fil0" d="M126.739 64.2958l11.272 0 0 -24.6448 -11.272 0 0 24.6448zm12.9434 3.3422l-14.6149 0c-0.9229,0 -1.6718,-0.7484 -1.6718,-1.671l0 -27.987c0,-0.9226 0.7485,-1.671 1.6712,-1.671l14.6155 0c0.9229,0 1.6668,0.7484 1.6668,1.671l0.0002 27.9869c0,0.9225 -0.7451,1.6712 -1.667,1.6711z"/><path class="fil0" d="M117.38 67.6346c-0.9225,0 -1.6745,-0.745 -1.6745,-1.6711 0,-0.9227 0.7484,-1.6676 1.6709,-1.6676l0.0036 -0.0001c0.9229,0 1.6711,0.7451 1.6711,1.6677 0.0006,0.9259 -0.7486,1.6712 -1.6711,1.6711z"/><path class="fil0" d="M87.8384 99.8688c-0.4151,0 -0.8299,-0.1531 -1.1536,-0.4629l-8.5643 -8.1989c-0.3273,-0.3133 -0.5152,-0.7484 -0.5152,-1.2044 0,-0.4562 0.1879,-0.8947 0.5152,-1.208l8.5649 -8.1987c0.6657,-0.6373 1.7228,-0.6162 2.3597,0.0522 0.6421,0.6648 0.616,1.7232 -0.0487,2.3604l-7.3039 6.994 7.3053 6.9907c0.6641,0.637 0.6878,1.6955 0.0473,2.3604 -0.3262,0.3445 -0.766,0.5153 -1.2067,0.5152z"/><path class="fil0" d="M122.054 99.8688c-0.4385,0 -0.8787,-0.1706 -1.2059,-0.5152 -0.6395,-0.6649 -0.6162,-1.7232 0.0487,-2.3603l7.3047 -6.9908 -7.3037 -6.9942c-0.6659,-0.6371 -0.6904,-1.6953 -0.0497,-2.3602 0.6371,-0.6685 1.6954,-0.6894 2.3605,-0.0522l8.5647 8.1985c0.3275,0.3133 0.5148,0.7522 0.5148,1.2082 0.0008,0.456 -0.1881,0.8912 -0.5151,1.2045l-8.5644 8.1987c-0.3227,0.3098 -0.7381,0.4631 -1.1546,0.463z"/><path class="fil0" d="M104.946 99.8688c-0.9225,0 -1.6723,-0.7449 -1.6723,-1.671l0.0008 -16.3941c0,-0.9225 0.7478,-1.6708 1.6703,-1.6708 0.9273,-0.0001 1.671,0.7484 1.671,1.671l0.0004 16.3938c0,0.9261 -0.7453,1.6712 -1.6702,1.6711z"/><path class="fil0" d="M29.66 123.793c-0.3071,0 -0.8917,1.0306 -0.8917,2.6459 0.0004,1.6188 0.5846,2.6494 0.8911,2.6494l13.8778 -0.0002c0.3055,0 0.8903,-1.0303 0.8903,-2.6492 0.0012,-1.6153 -0.585,-2.6457 -0.8911,-2.6457l-13.8764 -0.0002zm13.8772 8.6374l-13.8772 0c-2.4924,0 -4.234,-2.4648 -4.234,-5.9915 0.001,-3.5266 1.7408,-5.9879 4.2334,-5.9879l13.8778 0c2.4926,0 4.2324,2.4613 4.2324,5.9879 0.0008,3.5265 -1.7406,5.9915 -4.2324,5.9915z"/><path class="fil0" d="M29.66 142.801c-0.3071,0 -0.8917,1.0306 -0.8917,2.6495 0.0004,1.6153 0.5846,2.6458 0.8911,2.6458l13.8778 0c0.3055,0 0.8903,-1.0305 0.8903,-2.6458 0.0012,-1.619 -0.585,-2.6494 -0.8911,-2.6494l-13.8764 -0.0001zm13.8772 8.6375l-13.8772 0c-2.4924,0 -4.234,-2.4614 -4.234,-5.988 0.001,-3.5268 1.7408,-5.9914 4.2334,-5.9914l13.8778 -0.0002c2.4926,0 4.2324,2.4649 4.2324,5.9916 0.0008,3.5266 -1.7406,5.988 -4.2324,5.988z"/><path class="fil0" d="M63.0607 123.793c-0.3055,0 -0.8919,1.0306 -0.8919,2.6459 0.0004,1.6188 0.5848,2.6494 0.8911,2.6494l13.8779 -0.0002c0.3056,0 0.8902,-1.0303 0.8902,-2.6492 0.0012,-1.6153 -0.585,-2.6457 -0.8912,-2.6457l-13.8761 -0.0002zm13.8771 8.6374l-13.8771 0c-2.4926,0 -4.234,-2.4648 -4.234,-5.9915 0.0008,-3.5266 1.7406,-5.9879 4.2332,-5.9879l13.8779 0c2.4924,0 4.2324,2.4613 4.2324,5.9879 0.0006,3.5265 -1.7408,5.9915 -4.2324,5.9915z"/><path class="fil0" d="M63.0607 142.801c-0.3055,0 -0.8919,1.0306 -0.8919,2.6495 0.0004,1.6153 0.5848,2.6458 0.8911,2.6458l13.8779 0c0.3056,0 0.8902,-1.0305 0.8902,-2.6458 0.0012,-1.619 -0.585,-2.6494 -0.8912,-2.6494l-13.8761 -0.0001zm13.8771 8.6375l-13.8771 0c-2.4926,0 -4.234,-2.4614 -4.234,-5.988 0.0008,-3.5268 1.7406,-5.9914 4.2332,-5.9914l13.8779 -0.0002c2.4924,0 4.2324,2.4649 4.2324,5.9916 0.0006,3.5266 -1.7408,5.988 -4.2324,5.988z"/><path class="fil0" d="M96.4611 123.793c-0.3055,0 -0.8919,1.0306 -0.8919,2.6459 0.0004,1.6188 0.585,2.6494 0.8914,2.6494l13.8779 -0.0002c0.3053,0 0.8901,-1.0303 0.8901,-2.6492 0.0012,-1.6153 -0.585,-2.6457 -0.8913,-2.6457l-13.8762 -0.0002zm13.8774 8.6374l-13.8774 0c-2.4925,0 -4.2339,-2.4648 -4.2339,-5.9915 0.0009,-3.5266 1.7406,-5.9879 4.2334,-5.9879l13.8779 0c2.4924,0 4.2324,2.4613 4.2324,5.9879 0.0004,3.5265 -1.7408,5.9915 -4.2324,5.9915z"/><path class="fil0" d="M96.4611 142.801c-0.3055,0 -0.8919,1.0306 -0.8919,2.6495 0.0004,1.6153 0.585,2.6458 0.8914,2.6458l13.8779 0c0.3053,0 0.8901,-1.0305 0.8901,-2.6458 0.0012,-1.619 -0.585,-2.6494 -0.8913,-2.6494l-13.8762 -0.0001zm13.8774 8.6375l-13.8774 0c-2.4925,0 -4.2339,-2.4614 -4.2339,-5.988 0.0009,-3.5268 1.7406,-5.9914 4.2334,-5.9914l13.8779 -0.0002c2.4924,0 4.2324,2.4649 4.2324,5.9916 0.0004,3.5266 -1.7408,5.988 -4.2324,5.988z"/><path class="fil0" d="M129.862 123.793c-0.3069,0 -0.8917,1.0306 -0.8917,2.6459 0.0004,1.6188 0.5848,2.6494 0.8913,2.6494l13.8777 -0.0002c0.3054,0 0.8904,-1.0303 0.8904,-2.6492 0.0012,-1.6153 -0.585,-2.6457 -0.8913,-2.6457l-13.8764 -0.0002zm13.8773 8.6374l-13.8773 0c-2.4924,0 -4.234,-2.4648 -4.234,-5.9915 0.0012,-3.5266 1.7408,-5.9879 4.2336,-5.9879l13.8777 0c2.4926,0 4.2325,2.4613 4.2325,5.9879 0.0006,3.5265 -1.7407,5.9915 -4.2325,5.9915z"/><path class="fil0" d="M129.862 142.801c-0.3069,0 -0.8917,1.0306 -0.8917,2.6495 0.0004,1.6153 0.5848,2.6458 0.8913,2.6458l13.8777 0c0.3054,0 0.8904,-1.0305 0.8904,-2.6458 0.0012,-1.619 -0.585,-2.6494 -0.8913,-2.6494l-13.8764 -0.0001zm13.8773 8.6375l-13.8773 0c-2.4924,0 -4.234,-2.4614 -4.234,-5.988 0.0012,-3.5268 1.7408,-5.9914 4.2336,-5.9914l13.8777 -0.0002c2.4926,0 4.2325,2.4649 4.2325,5.9916 0.0006,3.5266 -1.7407,5.988 -4.2325,5.988z"/><path class="fil0" d="M35.5081 48.6156c-2.6412,0 -5.1245,-1.0269 -6.994,-2.8964 -1.8683,-1.8696 -2.8966,-4.3518 -2.8966,-6.9941 0.0008,-2.6425 1.0271,-5.1281 2.8966,-6.9976 0.6525,-0.6512 1.7092,-0.6511 2.3637,0 0.6513,0.6544 0.6509,1.7093 0,2.3638 -1.2381,1.2358 -1.9182,2.8826 -1.9182,4.6338 0.0002,1.7476 0.6789,3.3944 1.9182,4.6302 1.2371,1.2394 2.8828,1.9182 4.6303,1.9182 1.7517,-0.0001 3.398,-0.6788 4.6339,-1.9182 1.2395,-1.2358 1.918,-2.8826 1.918,-4.6302 0.0016,-1.7513 -0.6785,-3.3979 -1.918,-4.6338 -0.6497,-0.6546 -0.6511,-1.7093 0,-2.3638 0.6553,-0.6512 1.7128,-0.6511 2.3637,0 1.8697,1.8695 2.8966,4.3552 2.8966,6.9976 0.0008,2.6422 -1.0269,5.1246 -2.8966,6.9941 -1.8683,1.8693 -4.3516,2.8965 -6.9976,2.8964z"/><path class="fil0" d="M35.5081 38.2236c-0.9225,0 -1.6709,-0.7484 -1.6709,-1.6709l0.0012 -8.3556c0,-0.9225 0.7472,-1.6709 1.6697,-1.6709 0.9277,0 1.671,0.7485 1.671,1.6711l0.0008 8.3553c0,0.9225 -0.7457,1.6712 -1.6718,1.671z"/><path class="fil0" d="M29.4376 69.6641l12.1428 0 -6.0723 -9.0552 -6.0705 9.0552zm15.2763 3.3422l-18.4064 0c-0.6205,0 -1.1844,-0.3376 -1.4767,-0.8841 -0.289,-0.5433 -0.2578,-1.2047 0.0868,-1.7164l9.2058 -13.7273c0.3102,-0.4629 0.8277,-0.738 1.3847,-0.738 0.5578,-0.0001 1.0793,0.2751 1.3891,0.7381l9.2062 13.7271c0.3446,0.5117 0.3748,1.1733 0.0856,1.7165 -0.2925,0.5465 -0.8561,0.8842 -1.4751,0.8841z"/><path class="fil0" d="M29.4376 92.7633l6.0705 9.0551 6.0723 -9.0551 -12.1428 0zm6.0705 13.7271c-0.556,0 -1.0756,-0.2783 -1.3855,-0.7414l-9.2048 -13.7273c-0.3446,-0.5117 -0.3762,-1.1696 -0.087,-1.7162 0.2923,-0.5433 0.8562,-0.8843 1.4759,-0.8843l18.4072 -0.0002c0.6201,0 1.1826,0.3414 1.4751,0.8845 0.2904,0.5465 0.2578,1.2046 -0.087,1.7163l-9.204 13.7271c-0.3103,0.4632 -0.8329,0.7415 -1.3899,0.7415z"/><path class="fil0" d="M45.3295 82.8205l-19.6378 0c-0.9227,0 -1.6721,-0.7486 -1.6721,-1.6711 0.0006,-0.9227 0.7484,-1.671 1.6709,-1.671l19.639 -0.0001c0.9227,0 1.6707,0.7485 1.6707,1.6711 0.0008,0.9224 -0.7486,1.6711 -1.6707,1.6711z"/>
  </g></g><text x="0" y="188.397" fill="#000000" font-size="5px" font-weight="bold" font-family="'Helvetica Neue', Helvetica, Arial-Unicode, Arial, Sans-serif">Created by Maan Icons</text><text x="0" y="193.397" fill="#000000" font-size="5px" font-weight="bold" font-family="'Helvetica Neue', Helvetica, Arial-Unicode, Arial, Sans-serif">from the Noun Project</text></svg>